[gd_scene load_steps=5 format=2]

[ext_resource path="res://assets/models/wood.vox" type="ArrayMesh" id=1]
[ext_resource path="res://game_objects/ResourceItem.gd" type="Script" id=2]
[ext_resource path="res://assets/fonts/Teko-Bold-28.tres" type="DynamicFont" id=3]
[ext_resource path="res://assets/models/coin.vox" type="ArrayMesh" id=4]

[node name="ResourceItem" type="Spatial"]
transform = Transform( 1, 0, 0, 0, -4.37114e-08, -1, 0, 1, -4.37114e-08, -0.27545, 0.576888, -0.379127 )
script = ExtResource( 2 )

[node name="Resource" type="Spatial" parent="."]

[node name="Label3D" type="Label3D" parent="Resource"]
transform = Transform( 1, 0, -9.55343e-16, -3.23673e-09, 0.104719, 0.994502, -2.78893e-09, -0.994502, 0.104719, 0.265986, 0.382502, -0.185167 )
billboard = 1
text = "0"
font = ExtResource( 3 )

[node name="wood" type="MeshInstance" parent="Resource"]
transform = Transform( 0.494975, -0.494975, 0, 0.494975, 0.494975, 0, 0, 0, 0.7, 0.520145, 0.230502, 0.553231 )
visible = false
mesh = ExtResource( 1 )
skeleton = NodePath("../..")

[node name="coin" type="MeshInstance" parent="Resource"]
transform = Transform( 0.707107, 0, -0.707107, 0.707107, -4.37114e-08, 0.707107, -3.09086e-08, -1, -3.09086e-08, 0.248946, 0.391759, 0.893533 )
visible = false
mesh = ExtResource( 4 )
software_skinning_transform_normals = false
