[gd_scene load_steps=6 format=2]

[ext_resource path="res://assets/sea-texture-pixel-darken-export.png" type="Texture" id=1]

[sub_resource type="QuadMesh" id=1]

[sub_resource type="SpatialMaterial" id=2]
albedo_texture = ExtResource( 1 )
uv1_scale = Vector3( 200, 200, 0 )
uv1_offset = Vector3( 1, 0, 0 )

[sub_resource type="Animation" id=3]
length = 0.001
tracks/0/type = "value"
tracks/0/path = NodePath("Spatial/MeshInstance:translation")
tracks/0/interp = 1
tracks/0/loop_wrap = true
tracks/0/imported = false
tracks/0/enabled = true
tracks/0/keys = {
"times": PoolRealArray( 0 ),
"transitions": PoolRealArray( 1 ),
"update": 0,
"values": [ Vector3( 0, 0, 0 ) ]
}
tracks/1/type = "value"
tracks/1/path = NodePath("Spatial/MeshInstance:rotation_degrees")
tracks/1/interp = 1
tracks/1/loop_wrap = true
tracks/1/imported = false
tracks/1/enabled = true
tracks/1/keys = {
"times": PoolRealArray( 0 ),
"transitions": PoolRealArray( 1 ),
"update": 0,
"values": [ Vector3( -90, 0, 0 ) ]
}
tracks/2/type = "value"
tracks/2/path = NodePath("Spatial:rotation_degrees")
tracks/2/interp = 1
tracks/2/loop_wrap = true
tracks/2/imported = false
tracks/2/enabled = true
tracks/2/keys = {
"times": PoolRealArray( 0 ),
"transitions": PoolRealArray( 1 ),
"update": 0,
"values": [ Vector3( 0, 0, 0 ) ]
}
tracks/3/type = "value"
tracks/3/path = NodePath("Spatial:translation")
tracks/3/interp = 1
tracks/3/loop_wrap = true
tracks/3/imported = false
tracks/3/enabled = true
tracks/3/keys = {
"times": PoolRealArray( 0 ),
"transitions": PoolRealArray( 1 ),
"update": 0,
"values": [ Vector3( 0, 0, 0 ) ]
}

[sub_resource type="Animation" id=4]
resource_name = "waves"
length = 5.0
loop = true
tracks/0/type = "value"
tracks/0/path = NodePath("Spatial:translation")
tracks/0/interp = 1
tracks/0/loop_wrap = true
tracks/0/imported = false
tracks/0/enabled = true
tracks/0/keys = {
"times": PoolRealArray( 0, 2.5, 5 ),
"transitions": PoolRealArray( 1, 0.517632, 0.535887 ),
"update": 0,
"values": [ Vector3( 0, 0, 0 ), Vector3( 0, 0.3, 0 ), Vector3( 0, 0, 0 ) ]
}

[node name="Sea" type="Spatial"]

[node name="Spatial" type="Spatial" parent="."]

[node name="MeshInstance" type="MeshInstance" parent="Spatial"]
transform = Transform( 300, 0, 0, 0, -8.74228e-06, 1, 0, -200, -4.37114e-08, 0, 0, 0 )
mesh = SubResource( 1 )
skeleton = NodePath("../..")
material/0 = SubResource( 2 )

[node name="AnimationPlayer" type="AnimationPlayer" parent="."]
autoplay = "waves"
anims/RESET = SubResource( 3 )
anims/waves = SubResource( 4 )
